{
	"page": 2,
	"per_page": 10,
	"photos": [
		{
			"id": 10502143,
			"width": 3398,
			"height": 4247,
			"url": "https://www.pexels.com/photo/woman-in-white-long-sleeve-shirt-sitting-on-red-leather-couch-10502143/",
			"photographer": "Lany-Jade Mondou",
			"photographer_url": "https://www.pexels.com/@lany",
			"photographer_id": 135943481,
			"avg_color": "#654B32",
			"src": {
				"original": "https://images.pexels.com/photos/10502143/pexels-photo-10502143.jpeg",
				"large2x": "https://images.pexels.com/photos/10502143/pexels-photo-10502143.jpeg?auto=compress\u0026cs=tinysrgb\u0026dpr=2\u0026h=650\u0026w=940",
				"large": "https://images.pexels.com/photos/10502143/pexels-photo-10502143.jpeg?auto=compress\u0026cs=tinysrgb\u0026h=650\u0026w=940",
				"medium": "https://images.pexels.com/photos/10502143/pexels-photo-10502143.jpeg?auto=compress\u0026cs=tinysrgb\u0026h=350",
				"small": "https://images.pexels.com/photos/10502143/pexels-photo-10502143.jpeg?auto=compress\u0026cs=tinysrgb\u0026h=130",
				"portrait": "https://images.pexels.com/photos/10502143/pexels-photo-10502143.jpeg?auto=compress\u0026cs=tinysrgb\u0026fit=crop\u0026h=1200\u0026w=800",
				"landscape": "https://images.pexels.com/photos/10502143/pexels-photo-10502143.jpeg?auto=compress\u0026cs=tinysrgb\u0026fit=crop\u0026h=627\u0026w=1200",
				"tiny": "https://images.pexels.com/photos/10502143/pexels-photo-10502143.jpeg?auto=compress\u0026cs=tinysrgb\u0026dpr=1\u0026fit=crop\u0026h=200\u0026w=280"
			},
			"liked": false,
			"alt": "Woman in White Long Sleeve Shirt Sitting on Red Leather Couch"
		},
		{
			"id": 10497630,
			"width": 3924,
			"height": 5886,
			"url": "https://www.pexels.com/photo/grayscale-photo-of-persons-hand-10497630/",
			"photographer": "Aedrian",
			"photographer_url": "https://www.pexels.com/@aedrian",
			"photographer_id": 29419609,
			"avg_color": "#27282A",
			"src": {
				"original": "https://images.pexels.com/photos/10497630/pexels-photo-10497630.jpeg",
				"large2x": "https://images.pexels.com/photos/10497630/pexels-photo-10497630.jpeg?auto=compress\u0026cs=tinysrgb\u0026dpr=2\u0026h=650\u0026w=940",
				"large": "https://images.pexels.com/photos/10497630/pexels-photo-10497630.jpeg?auto=compress\u0026cs=tinysrgb\u0026h=650\u0026w=940",
				"medium": "https://images.pexels.com/photos/10497630/pexels-photo-10497630.jpeg?auto=compress\u0026cs=tinysrgb\u0026h=350",
				"small": "https://images.pexels.com/photos/10497630/pexels-photo-10497630.jpeg?auto=compress\u0026cs=tinysrgb\u0026h=130",
				"portrait": "https://images.pexels.com/photos/10497630/pexels-photo-10497630.jpeg?auto=compress\u0026cs=tinysrgb\u0026fit=crop\u0026h=1200\u0026w=800",
				"landscape": "https://images.pexels.com/photos/10497630/pexels-photo-10497630.jpeg?auto=compress\u0026cs=tinysrgb\u0026fit=crop\u0026h=627\u0026w=1200",
				"tiny": "https://images.pexels.com/photos/10497630/pexels-photo-10497630.jpeg?auto=compress\u0026cs=tinysrgb\u0026dpr=1\u0026fit=crop\u0026h=200\u0026w=280"
			},
			"liked": false,
			"alt": "Grayscale Photo of Persons Hand"
		},
		{
			"id": 10504692,
			"width": 3620,
			"height": 2432,
			"url": "https://www.pexels.com/photo/grayscale-photo-of-potted-plants-on-window-10504692/",
			"photographer": "Alexey Demidov",
			"photographer_url": "https://www.pexels.com/@theplanetspeaks",
			"photographer_id": 53796359,
			"avg_color": "#8C8C8C",
			"src": {
				"original": "https://images.pexels.com/photos/10504692/pexels-photo-10504692.jpeg",
				"large2x": "https://images.pexels.com/photos/10504692/pexels-photo-10504692.jpeg?auto=compress\u0026cs=tinysrgb\u0026dpr=2\u0026h=650\u0026w=940",
				"large": "https://images.pexels.com/photos/10504692/pexels-photo-10504692.jpeg?auto=compress\u0026cs=tinysrgb\u0026h=650\u0026w=940",
				"medium": "https://images.pexels.com/photos/10504692/pexels-photo-10504692.jpeg?auto=compress\u0026cs=tinysrgb\u0026h=350",
				"small": "https://images.pexels.com/photos/10504692/pexels-photo-10504692.jpeg?auto=compress\u0026cs=tinysrgb\u0026h=130",
				"portrait": "https://images.pexels.com/photos/10504692/pexels-photo-10504692.jpeg?auto=compress\u0026cs=tinysrgb\u0026fit=crop\u0026h=1200\u0026w=800",
				"landscape": "https://images.pexels.com/photos/10504692/pexels-photo-10504692.jpeg?auto=compress\u0026cs=tinysrgb\u0026fit=crop\u0026h=627\u0026w=1200",
				"tiny": "https://images.pexels.com/photos/10504692/pexels-photo-10504692.jpeg?auto=compress\u0026cs=tinysrgb\u0026dpr=1\u0026fit=crop\u0026h=200\u0026w=280"
			},
			"liked": false,
			"alt": "Grayscale Photo of Potted Plants on Window"
		},
		{
			"id": 10479230,
			"width": 3539,
			"height": 5308,
			"url": "https://www.pexels.com/photo/woman-sitting-on-white-background-10479230/",
			"photographer": "Lena Goncharova",
			"photographer_url": "https://www.pexels.com/@lena-goncharova-78970252",
			"photographer_id": 78970252,
			"avg_color": "#BCBCBC",
			"src": {
				"original": "https://images.pexels.com/photos/10479230/pexels-photo-10479230.jpeg",
				"large2x": "https://images.pexels.com/photos/10479230/pexels-photo-10479230.jpeg?auto=compress\u0026cs=tinysrgb\u0026dpr=2\u0026h=650\u0026w=940",
				"large": "https://images.pexels.com/photos/10479230/pexels-photo-10479230.jpeg?auto=compress\u0026cs=tinysrgb\u0026h=650\u0026w=940",
				"medium": "https://images.pexels.com/photos/10479230/pexels-photo-10479230.jpeg?auto=compress\u0026cs=tinysrgb\u0026h=350",
				"small": "https://images.pexels.com/photos/10479230/pexels-photo-10479230.jpeg?auto=compress\u0026cs=tinysrgb\u0026h=130",
				"portrait": "https://images.pexels.com/photos/10479230/pexels-photo-10479230.jpeg?auto=compress\u0026cs=tinysrgb\u0026fit=crop\u0026h=1200\u0026w=800",
				"landscape": "https://images.pexels.com/photos/10479230/pexels-photo-10479230.jpeg?auto=compress\u0026cs=tinysrgb\u0026fit=crop\u0026h=627\u0026w=1200",
				"tiny": "https://images.pexels.com/photos/10479230/pexels-photo-10479230.jpeg?auto=compress\u0026cs=tinysrgb\u0026dpr=1\u0026fit=crop\u0026h=200\u0026w=280"
			},
			"liked": false,
			"alt": "Woman Sitting on White Background"
		},
		{
			"id": 10500476,
			"width": 3897,
			"height": 4871,
			"url": "https://www.pexels.com/photo/grayscale-photo-of-man-riding-bicycle-10500476/",
			"photographer": "Marcel Köhler",
			"photographer_url": "https://www.pexels.com/@94arts",
			"photographer_id": 145489709,
			"avg_color": "#444444",
			"src": {
				"original": "https://images.pexels.com/photos/10500476/pexels-photo-10500476.jpeg",
				"large2x": "https://images.pexels.com/photos/10500476/pexels-photo-10500476.jpeg?auto=compress\u0026cs=tinysrgb\u0026dpr=2\u0026h=650\u0026w=940",
				"large": "https://images.pexels.com/photos/10500476/pexels-photo-10500476.jpeg?auto=compress\u0026cs=tinysrgb\u0026h=650\u0026w=940",
				"medium": "https://images.pexels.com/photos/10500476/pexels-photo-10500476.jpeg?auto=compress\u0026cs=tinysrgb\u0026h=350",
				"small": "https://images.pexels.com/photos/10500476/pexels-photo-10500476.jpeg?auto=compress\u0026cs=tinysrgb\u0026h=130",
				"portrait": "https://images.pexels.com/photos/10500476/pexels-photo-10500476.jpeg?auto=compress\u0026cs=tinysrgb\u0026fit=crop\u0026h=1200\u0026w=800",
				"landscape": "https://images.pexels.com/photos/10500476/pexels-photo-10500476.jpeg?auto=compress\u0026cs=tinysrgb\u0026fit=crop\u0026h=627\u0026w=1200",
				"tiny": "https://images.pexels.com/photos/10500476/pexels-photo-10500476.jpeg?auto=compress\u0026cs=tinysrgb\u0026dpr=1\u0026fit=crop\u0026h=200\u0026w=280"
			},
			"liked": false,
			"alt": "Grayscale Photo of Man Riding Bicycle"
		},
		{
			"id": 10494920,
			"width": 5444,
			"height": 3649,
			"url": "https://www.pexels.com/photo/brown-wooden-bench-near-sea-10494920/",
			"photographer": "Nikita Igonkin",
			"photographer_url": "https://www.pexels.com/@igonkin",
			"photographer_id": 123399352,
			"avg_color": "#9F9387",
			"src": {
				"original": "https://images.pexels.com/photos/10494920/pexels-photo-10494920.jpeg",
				"large2x": "https://images.pexels.com/photos/10494920/pexels-photo-10494920.jpeg?auto=compress\u0026cs=tinysrgb\u0026dpr=2\u0026h=650\u0026w=940",
				"large": "https://images.pexels.com/photos/10494920/pexels-photo-10494920.jpeg?auto=compress\u0026cs=tinysrgb\u0026h=650\u0026w=940",
				"medium": "https://images.pexels.com/photos/10494920/pexels-photo-10494920.jpeg?auto=compress\u0026cs=tinysrgb\u0026h=350",
				"small": "https://images.pexels.com/photos/10494920/pexels-photo-10494920.jpeg?auto=compress\u0026cs=tinysrgb\u0026h=130",
				"portrait": "https://images.pexels.com/photos/10494920/pexels-photo-10494920.jpeg?auto=compress\u0026cs=tinysrgb\u0026fit=crop\u0026h=1200\u0026w=800",
				"landscape": "https://images.pexels.com/photos/10494920/pexels-photo-10494920.jpeg?auto=compress\u0026cs=tinysrgb\u0026fit=crop\u0026h=627\u0026w=1200",
				"tiny": "https://images.pexels.com/photos/10494920/pexels-photo-10494920.jpeg?auto=compress\u0026cs=tinysrgb\u0026dpr=1\u0026fit=crop\u0026h=200\u0026w=280"
			},
			"liked": false,
			"alt": "Brown Wooden Bench Near Sea"
		},
		{
			"id": 10482178,
			"width": 5472,
			"height": 3648,
			"url": "https://www.pexels.com/photo/green-palm-tree-under-cloudy-sky-10482178/",
			"photographer": "Alexey Demidov",
			"photographer_url": "https://www.pexels.com/@theplanetspeaks",
			"photographer_id": 53796359,
			"avg_color": "#625D64",
			"src": {
				"original": "https://images.pexels.com/photos/10482178/pexels-photo-10482178.jpeg",
				"large2x": "https://images.pexels.com/photos/10482178/pexels-photo-10482178.jpeg?auto=compress\u0026cs=tinysrgb\u0026dpr=2\u0026h=650\u0026w=940",
				"large": "https://images.pexels.com/photos/10482178/pexels-photo-10482178.jpeg?auto=compress\u0026cs=tinysrgb\u0026h=650\u0026w=940",
				"medium": "https://images.pexels.com/photos/10482178/pexels-photo-10482178.jpeg?auto=compress\u0026cs=tinysrgb\u0026h=350",
				"small": "https://images.pexels.com/photos/10482178/pexels-photo-10482178.jpeg?auto=compress\u0026cs=tinysrgb\u0026h=130",
				"portrait": "https://images.pexels.com/photos/10482178/pexels-photo-10482178.jpeg?auto=compress\u0026cs=tinysrgb\u0026fit=crop\u0026h=1200\u0026w=800",
				"landscape": "https://images.pexels.com/photos/10482178/pexels-photo-10482178.jpeg?auto=compress\u0026cs=tinysrgb\u0026fit=crop\u0026h=627\u0026w=1200",
				"tiny": "https://images.pexels.com/photos/10482178/pexels-photo-10482178.jpeg?auto=compress\u0026cs=tinysrgb\u0026dpr=1\u0026fit=crop\u0026h=200\u0026w=280"
			},
			"liked": false,
			"alt": "Green Palm Tree Under Cloudy Sky"
		},
		{
			"id": 10481039,
			"width": 3781,
			"height": 5041,
			"url": "https://www.pexels.com/photo/city-red-street-building-10481039/",
			"photographer": "Nicolas",
			"photographer_url": "https://www.pexels.com/@nicolas",
			"photographer_id": 1149515,
			"avg_color": "#88756F",
			"src": {
				"original": "https://images.pexels.com/photos/10481039/pexels-photo-10481039.jpeg",
				"large2x": "https://images.pexels.com/photos/10481039/pexels-photo-10481039.jpeg?auto=compress\u0026cs=tinysrgb\u0026dpr=2\u0026h=650\u0026w=940",
				"large": "https://images.pexels.com/photos/10481039/pexels-photo-10481039.jpeg?auto=compress\u0026cs=tinysrgb\u0026h=650\u0026w=940",
				"medium": "https://images.pexels.com/photos/10481039/pexels-photo-10481039.jpeg?auto=compress\u0026cs=tinysrgb\u0026h=350",
				"small": "https://images.pexels.com/photos/10481039/pexels-photo-10481039.jpeg?auto=compress\u0026cs=tinysrgb\u0026h=130",
				"portrait": "https://images.pexels.com/photos/10481039/pexels-photo-10481039.jpeg?auto=compress\u0026cs=tinysrgb\u0026fit=crop\u0026h=1200\u0026w=800",
				"landscape": "https://images.pexels.com/photos/10481039/pexels-photo-10481039.jpeg?auto=compress\u0026cs=tinysrgb\u0026fit=crop\u0026h=627\u0026w=1200",
				"tiny": "https://images.pexels.com/photos/10481039/pexels-photo-10481039.jpeg?auto=compress\u0026cs=tinysrgb\u0026dpr=1\u0026fit=crop\u0026h=200\u0026w=280"
			},
			"liked": false,
			"alt": "Free stock photo of architecture, black car, brick background"
		},
		{
			"id": 10467820,
			"width": 2103,
			"height": 3245,
			"url": "https://www.pexels.com/photo/grayscale-photo-of-brick-building-10467820/",
			"photographer": "Haydon",
			"photographer_url": "https://www.pexels.com/@haydon-147525945",
			"photographer_id": 147525945,
			"avg_color": "#7D7D7D",
			"src": {
				"original": "https://images.pexels.com/photos/10467820/pexels-photo-10467820.jpeg",
				"large2x": "https://images.pexels.com/photos/10467820/pexels-photo-10467820.jpeg?auto=compress\u0026cs=tinysrgb\u0026dpr=2\u0026h=650\u0026w=940",
				"large": "https://images.pexels.com/photos/10467820/pexels-photo-10467820.jpeg?auto=compress\u0026cs=tinysrgb\u0026h=650\u0026w=940",
				"medium": "https://images.pexels.com/photos/10467820/pexels-photo-10467820.jpeg?auto=compress\u0026cs=tinysrgb\u0026h=350",
				"small": "https://images.pexels.com/photos/10467820/pexels-photo-10467820.jpeg?auto=compress\u0026cs=tinysrgb\u0026h=130",
				"portrait": "https://images.pexels.com/photos/10467820/pexels-photo-10467820.jpeg?auto=compress\u0026cs=tinysrgb\u0026fit=crop\u0026h=1200\u0026w=800",
				"landscape": "https://images.pexels.com/photos/10467820/pexels-photo-10467820.jpeg?auto=compress\u0026cs=tinysrgb\u0026fit=crop\u0026h=627\u0026w=1200",
				"tiny": "https://images.pexels.com/photos/10467820/pexels-photo-10467820.jpeg?auto=compress\u0026cs=tinysrgb\u0026dpr=1\u0026fit=crop\u0026h=200\u0026w=280"
			},
			"liked": false,
			"alt": "Grayscale Photo of Brick Building"
		},
		{
			"id": 10135442,
			"width": 3635,
			"height": 5453,
			"url": "https://www.pexels.com/photo/city-mountains-nature-beach-10135442/",
			"photographer": "Daniel Nouri",
			"photographer_url": "https://www.pexels.com/@danielnouri",
			"photographer_id": 66355244,
			"avg_color": "#7E7E80",
			"src": {
				"original": "https://images.pexels.com/photos/10135442/pexels-photo-10135442.jpeg",
				"large2x": "https://images.pexels.com/photos/10135442/pexels-photo-10135442.jpeg?auto=compress\u0026cs=tinysrgb\u0026dpr=2\u0026h=650\u0026w=940",
				"large": "https://images.pexels.com/photos/10135442/pexels-photo-10135442.jpeg?auto=compress\u0026cs=tinysrgb\u0026h=650\u0026w=940",
				"medium": "https://images.pexels.com/photos/10135442/pexels-photo-10135442.jpeg?auto=compress\u0026cs=tinysrgb\u0026h=350",
				"small": "https://images.pexels.com/photos/10135442/pexels-photo-10135442.jpeg?auto=compress\u0026cs=tinysrgb\u0026h=130",
				"portrait": "https://images.pexels.com/photos/10135442/pexels-photo-10135442.jpeg?auto=compress\u0026cs=tinysrgb\u0026fit=crop\u0026h=1200\u0026w=800",
				"landscape": "https://images.pexels.com/photos/10135442/pexels-photo-10135442.jpeg?auto=compress\u0026cs=tinysrgb\u0026fit=crop\u0026h=627\u0026w=1200",
				"tiny": "https://images.pexels.com/photos/10135442/pexels-photo-10135442.jpeg?auto=compress\u0026cs=tinysrgb\u0026dpr=1\u0026fit=crop\u0026h=200\u0026w=280"
			},
			"liked": false,
			"alt": "Free stock photo of ancient, architecture, background"
		}
	],
	"total_results": 8000,
	"next_page": "https://api.pexels.com/v1/curated/?page=3\u0026per_page=10",
	"prev_page": "https://api.pexels.com/v1/curated/?page=1\u0026per_page=10"
}