{
	"page": 2,
	"per_page": 10,
	"photos": [
		{
			"id": 919073,
			"width": 5472,
			"height": 3648,
			"url": "https://www.pexels.com/photo/photography-of-gray-sports-car-919073/",
			"photographer": "Albin Berlin",
			"photographer_url": "https://www.pexels.com/@albinberlin",
			"photographer_id": 91719,
			"avg_color": "#070606",
			"src": {
				"original": "https://images.pexels.com/photos/919073/pexels-photo-919073.jpeg",
				"large2x": "https://images.pexels.com/photos/919073/pexels-photo-919073.jpeg?auto=compress\u0026cs=tinysrgb\u0026dpr=2\u0026h=650\u0026w=940",
				"large": "https://images.pexels.com/photos/919073/pexels-photo-919073.jpeg?auto=compress\u0026cs=tinysrgb\u0026h=650\u0026w=940",
				"medium": "https://images.pexels.com/photos/919073/pexels-photo-919073.jpeg?auto=compress\u0026cs=tinysrgb\u0026h=350",
				"small": "https://images.pexels.com/photos/919073/pexels-photo-919073.jpeg?auto=compress\u0026cs=tinysrgb\u0026h=130",
				"portrait": "https://images.pexels.com/photos/919073/pexels-photo-919073.jpeg?auto=compress\u0026cs=tinysrgb\u0026fit=crop\u0026h=1200\u0026w=800",
				"landscape": "https://images.pexels.com/photos/919073/pexels-photo-919073.jpeg?auto=compress\u0026cs=tinysrgb\u0026fit=crop\u0026h=627\u0026w=1200",
				"tiny": "https://images.pexels.com/photos/919073/pexels-photo-919073.jpeg?auto=compress\u0026cs=tinysrgb\u0026dpr=1\u0026fit=crop\u0026h=200\u0026w=280"
			},
			"liked": false,
			"alt": "Photography of Gray Sports Car"
		},
		{
			"id": 248747,
			"width": 5472,
			"height": 3648,
			"url": "https://www.pexels.com/photo/close-up-of-electric-lamp-against-black-background-248747/",
			"photographer": "Pixabay",
			"photographer_url": "https://www.pexels.com/@pixabay",
			"photographer_id": 2659,
			"avg_color": "#050504",
			"src": {
				"original": "https://images.pexels.com/photos/248747/pexels-photo-248747.jpeg",
				"large2x": "https://images.pexels.com/photos/248747/pexels-photo-248747.jpeg?auto=compress\u0026cs=tinysrgb\u0026dpr=2\u0026h=650\u0026w=940",
				"large": "https://images.pexels.com/photos/248747/pexels-photo-248747.jpeg?auto=compress\u0026cs=tinysrgb\u0026h=650\u0026w=940",
				"medium": "https://images.pexels.com/photos/248747/pexels-photo-248747.jpeg?auto=compress\u0026cs=tinysrgb\u0026h=350",
				"small": "https://images.pexels.com/photos/248747/pexels-photo-248747.jpeg?auto=compress\u0026cs=tinysrgb\u0026h=130",
				"portrait": "https://images.pexels.com/photos/248747/pexels-photo-248747.jpeg?auto=compress\u0026cs=tinysrgb\u0026fit=crop\u0026h=1200\u0026w=800",
				"landscape": "https://images.pexels.com/photos/248747/pexels-photo-248747.jpeg?auto=compress\u0026cs=tinysrgb\u0026fit=crop\u0026h=627\u0026w=1200",
				"tiny": "https://images.pexels.com/photos/248747/pexels-photo-248747.jpeg?auto=compress\u0026cs=tinysrgb\u0026dpr=1\u0026fit=crop\u0026h=200\u0026w=280"
			},
			"liked": false,
			"alt": "Close Up of Electric Lamp Against Black Background"
		},
		{
			"id": 315938,
			"width": 6000,
			"height": 4000,
			"url": "https://www.pexels.com/photo/light-trails-on-highway-at-night-315938/",
			"photographer": "Pixabay",
			"photographer_url": "https://www.pexels.com/@pixabay",
			"photographer_id": 2659,
			"avg_color": "#182435",
			"src": {
				"original": "https://images.pexels.com/photos/315938/pexels-photo-315938.jpeg",
				"large2x": "https://images.pexels.com/photos/315938/pexels-photo-315938.jpeg?auto=compress\u0026cs=tinysrgb\u0026dpr=2\u0026h=650\u0026w=940",
				"large": "https://images.pexels.com/photos/315938/pexels-photo-315938.jpeg?auto=compress\u0026cs=tinysrgb\u0026h=650\u0026w=940",
				"medium": "https://images.pexels.com/photos/315938/pexels-photo-315938.jpeg?auto=compress\u0026cs=tinysrgb\u0026h=350",
				"small": "https://images.pexels.com/photos/315938/pexels-photo-315938.jpeg?auto=compress\u0026cs=tinysrgb\u0026h=130",
				"portrait": "https://images.pexels.com/photos/315938/pexels-photo-315938.jpeg?auto=compress\u0026cs=tinysrgb\u0026fit=crop\u0026h=1200\u0026w=800",
				"landscape": "https://images.pexels.com/photos/315938/pexels-photo-315938.jpeg?auto=compress\u0026cs=tinysrgb\u0026fit=crop\u0026h=627\u0026w=1200",
				"tiny": "https://images.pexels.com/photos/315938/pexels-photo-315938.jpeg?auto=compress\u0026cs=tinysrgb\u0026dpr=1\u0026fit=crop\u0026h=200\u0026w=280"
			},
			"liked": false,
			"alt": "Light Trails on Highway at Night"
		},
		{
			"id": 39855,
			"width": 2560,
			"height": 1920,
			"url": "https://www.pexels.com/photo/yellow-sports-car-during-day-time-39855/",
			"photographer": "Pixabay",
			"photographer_url": "https://www.pexels.com/@pixabay",
			"photographer_id": 2659,
			"avg_color": "#9B8F79",
			"src": {
				"original": "https://images.pexels.com/photos/39855/lamborghini-brno-racing-car-automobiles-39855.jpeg",
				"large2x": "https://images.pexels.com/photos/39855/lamborghini-brno-racing-car-automobiles-39855.jpeg?auto=compress\u0026cs=tinysrgb\u0026dpr=2\u0026h=650\u0026w=940",
				"large": "https://images.pexels.com/photos/39855/lamborghini-brno-racing-car-automobiles-39855.jpeg?auto=compress\u0026cs=tinysrgb\u0026h=650\u0026w=940",
				"medium": "https://images.pexels.com/photos/39855/lamborghini-brno-racing-car-automobiles-39855.jpeg?auto=compress\u0026cs=tinysrgb\u0026h=350",
				"small": "https://images.pexels.com/photos/39855/lamborghini-brno-racing-car-automobiles-39855.jpeg?auto=compress\u0026cs=tinysrgb\u0026h=130",
				"portrait": "https://images.pexels.com/photos/39855/lamborghini-brno-racing-car-automobiles-39855.jpeg?auto=compress\u0026cs=tinysrgb\u0026fit=crop\u0026h=1200\u0026w=800",
				"landscape": "https://images.pexels.com/photos/39855/lamborghini-brno-racing-car-automobiles-39855.jpeg?auto=compress\u0026cs=tinysrgb\u0026fit=crop\u0026h=627\u0026w=1200",
				"tiny": "https://images.pexels.com/photos/39855/lamborghini-brno-racing-car-automobiles-39855.jpeg?auto=compress\u0026cs=tinysrgb\u0026dpr=1\u0026fit=crop\u0026h=200\u0026w=280"
			},
			"liked": false,
			"alt": "Yellow Sports Car during Day Time"
		},
		{
			"id": 1149137,
			"width": 5472,
			"height": 3648,
			"url": "https://www.pexels.com/photo/black-toyota-4-door-truck-1149137/",
			"photographer": "Kelson Downes",
			"photographer_url": "https://www.pexels.com/@kelson-downes",
			"photographer_id": 452255,
			"avg_color": "#6E6057",
			"src": {
				"original": "https://images.pexels.com/photos/1149137/pexels-photo-1149137.jpeg",
				"large2x": "https://images.pexels.com/photos/1149137/pexels-photo-1149137.jpeg?auto=compress\u0026cs=tinysrgb\u0026dpr=2\u0026h=650\u0026w=940",
				"large": "https://images.pexels.com/photos/1149137/pexels-photo-1149137.jpeg?auto=compress\u0026cs=tinysrgb\u0026h=650\u0026w=940",
				"medium": "https://images.pexels.com/photos/1149137/pexels-photo-1149137.jpeg?auto=compress\u0026cs=tinysrgb\u0026h=350",
				"small": "https://images.pexels.com/photos/1149137/pexels-photo-1149137.jpeg?auto=compress\u0026cs=tinysrgb\u0026h=130",
				"portrait": "https://images.pexels.com/photos/1149137/pexels-photo-1149137.jpeg?auto=compress\u0026cs=tinysrgb\u0026fit=crop\u0026h=1200\u0026w=800",
				"landscape": "https://images.pexels.com/photos/1149137/pexels-photo-1149137.jpeg?auto=compress\u0026cs=tinysrgb\u0026fit=crop\u0026h=627\u0026w=1200",
				"tiny": "https://images.pexels.com/photos/1149137/pexels-photo-1149137.jpeg?auto=compress\u0026cs=tinysrgb\u0026dpr=1\u0026fit=crop\u0026h=200\u0026w=280"
			},
			"liked": false,
			"alt": "Black Toyota 4-door Truck"
		},
		{
			"id": 63294,
			"width": 2592,
			"height": 1944,
			"url": "https://www.pexels.com/photo/vehicles-parked-inside-elevated-parking-lot-63294/",
			"photographer": "Pixabay",
			"photographer_url": "https://www.pexels.com/@pixabay",
			"photographer_id": 2659,
			"avg_color": "#6D6D6E",
			"src": {
				"original": "https://images.pexels.com/photos/63294/autos-technology-vw-multi-storey-car-park-63294.jpeg",
				"large2x": "https://images.pexels.com/photos/63294/autos-technology-vw-multi-storey-car-park-63294.jpeg?auto=compress\u0026cs=tinysrgb\u0026dpr=2\u0026h=650\u0026w=940",
				"large": "https://images.pexels.com/photos/63294/autos-technology-vw-multi-storey-car-park-63294.jpeg?auto=compress\u0026cs=tinysrgb\u0026h=650\u0026w=940",
				"medium": "https://images.pexels.com/photos/63294/autos-technology-vw-multi-storey-car-park-63294.jpeg?auto=compress\u0026cs=tinysrgb\u0026h=350",
				"small": "https://images.pexels.com/photos/63294/autos-technology-vw-multi-storey-car-park-63294.jpeg?auto=compress\u0026cs=tinysrgb\u0026h=130",
				"portrait": "https://images.pexels.com/photos/63294/autos-technology-vw-multi-storey-car-park-63294.jpeg?auto=compress\u0026cs=tinysrgb\u0026fit=crop\u0026h=1200\u0026w=800",
				"landscape": "https://images.pexels.com/photos/63294/autos-technology-vw-multi-storey-car-park-63294.jpeg?auto=compress\u0026cs=tinysrgb\u0026fit=crop\u0026h=627\u0026w=1200",
				"tiny": "https://images.pexels.com/photos/63294/autos-technology-vw-multi-storey-car-park-63294.jpeg?auto=compress\u0026cs=tinysrgb\u0026dpr=1\u0026fit=crop\u0026h=200\u0026w=280"
			},
			"liked": false,
			"alt": "Vehicles Parked Inside Elevated Parking Lot"
		},
		{
			"id": 733745,
			"width": 5184,
			"height": 3456,
			"url": "https://www.pexels.com/photo/white-sports-coupe-733745/",
			"photographer": "Cesar Perez",
			"photographer_url": "https://www.pexels.com/@cesarperez209",
			"photographer_id": 230962,
			"avg_color": "#332B24",
			"src": {
				"original": "https://images.pexels.com/photos/733745/pexels-photo-733745.jpeg",
				"large2x": "https://images.pexels.com/photos/733745/pexels-photo-733745.jpeg?auto=compress\u0026cs=tinysrgb\u0026dpr=2\u0026h=650\u0026w=940",
				"large": "https://images.pexels.com/photos/733745/pexels-photo-733745.jpeg?auto=compress\u0026cs=tinysrgb\u0026h=650\u0026w=940",
				"medium": "https://images.pexels.com/photos/733745/pexels-photo-733745.jpeg?auto=compress\u0026cs=tinysrgb\u0026h=350",
				"small": "https://images.pexels.com/photos/733745/pexels-photo-733745.jpeg?auto=compress\u0026cs=tinysrgb\u0026h=130",
				"portrait": "https://images.pexels.com/photos/733745/pexels-photo-733745.jpeg?auto=compress\u0026cs=tinysrgb\u0026fit=crop\u0026h=1200\u0026w=800",
				"landscape": "https://images.pexels.com/photos/733745/pexels-photo-733745.jpeg?auto=compress\u0026cs=tinysrgb\u0026fit=crop\u0026h=627\u0026w=1200",
				"tiny": "https://images.pexels.com/photos/733745/pexels-photo-733745.jpeg?auto=compress\u0026cs=tinysrgb\u0026dpr=1\u0026fit=crop\u0026h=200\u0026w=280"
			},
			"liked": false,
			"alt": "White Sports Coupe"
		},
		{
			"id": 3311574,
			"width": 2738,
			"height": 1825,
			"url": "https://www.pexels.com/photo/black-dodge-challenger-coupe-3311574/",
			"photographer": "Garvin St. Villier",
			"photographer_url": "https://www.pexels.com/@garvin-st-villier-719266",
			"photographer_id": 719266,
			"avg_color": "#919499",
			"src": {
				"original": "https://images.pexels.com/photos/3311574/pexels-photo-3311574.jpeg",
				"large2x": "https://images.pexels.com/photos/3311574/pexels-photo-3311574.jpeg?auto=compress\u0026cs=tinysrgb\u0026dpr=2\u0026h=650\u0026w=940",
				"large": "https://images.pexels.com/photos/3311574/pexels-photo-3311574.jpeg?auto=compress\u0026cs=tinysrgb\u0026h=650\u0026w=940",
				"medium": "https://images.pexels.com/photos/3311574/pexels-photo-3311574.jpeg?auto=compress\u0026cs=tinysrgb\u0026h=350",
				"small": "https://images.pexels.com/photos/3311574/pexels-photo-3311574.jpeg?auto=compress\u0026cs=tinysrgb\u0026h=130",
				"portrait": "https://images.pexels.com/photos/3311574/pexels-photo-3311574.jpeg?auto=compress\u0026cs=tinysrgb\u0026fit=crop\u0026h=1200\u0026w=800",
				"landscape": "https://images.pexels.com/photos/3311574/pexels-photo-3311574.jpeg?auto=compress\u0026cs=tinysrgb\u0026fit=crop\u0026h=627\u0026w=1200",
				"tiny": "https://images.pexels.com/photos/3311574/pexels-photo-3311574.jpeg?auto=compress\u0026cs=tinysrgb\u0026dpr=1\u0026fit=crop\u0026h=200\u0026w=280"
			},
			"liked": false,
			"alt": "Black Dodge Challenger Coupe"
		},
		{
			"id": 831475,
			"width": 2560,
			"height": 1707,
			"url": "https://www.pexels.com/photo/red-convertible-coupe-on-black-surface-831475/",
			"photographer": "Charles Kettor",
			"photographer_url": "https://www.pexels.com/@charles-kettor-268979",
			"photographer_id": 268979,
			"avg_color": "#413134",
			"src": {
				"original": "https://images.pexels.com/photos/831475/pexels-photo-831475.jpeg",
				"large2x": "https://images.pexels.com/photos/831475/pexels-photo-831475.jpeg?auto=compress\u0026cs=tinysrgb\u0026dpr=2\u0026h=650\u0026w=940",
				"large": "https://images.pexels.com/photos/831475/pexels-photo-831475.jpeg?auto=compress\u0026cs=tinysrgb\u0026h=650\u0026w=940",
				"medium": "https://images.pexels.com/photos/831475/pexels-photo-831475.jpeg?auto=compress\u0026cs=tinysrgb\u0026h=350",
				"small": "https://images.pexels.com/photos/831475/pexels-photo-831475.jpeg?auto=compress\u0026cs=tinysrgb\u0026h=130",
				"portrait": "https://images.pexels.com/photos/831475/pexels-photo-831475.jpeg?auto=compress\u0026cs=tinysrgb\u0026fit=crop\u0026h=1200\u0026w=800",
				"landscape": "https://images.pexels.com/photos/831475/pexels-photo-831475.jpeg?auto=compress\u0026cs=tinysrgb\u0026fit=crop\u0026h=627\u0026w=1200",
				"tiny": "https://images.pexels.com/photos/831475/pexels-photo-831475.jpeg?auto=compress\u0026cs=tinysrgb\u0026dpr=1\u0026fit=crop\u0026h=200\u0026w=280"
			},
			"liked": false,
			"alt": "Red Convertible Coupe on Black Surface"
		},
		{
			"id": 1077785,
			"width": 6000,
			"height": 4000,
			"url": "https://www.pexels.com/photo/parked-cars-1077785/",
			"photographer": "Charles Kettor",
			"photographer_url": "https://www.pexels.com/@charles-kettor-268979",
			"photographer_id": 268979,
			"avg_color": "#6A737B",
			"src": {
				"original": "https://images.pexels.com/photos/1077785/pexels-photo-1077785.jpeg",
				"large2x": "https://images.pexels.com/photos/1077785/pexels-photo-1077785.jpeg?auto=compress\u0026cs=tinysrgb\u0026dpr=2\u0026h=650\u0026w=940",
				"large": "https://images.pexels.com/photos/1077785/pexels-photo-1077785.jpeg?auto=compress\u0026cs=tinysrgb\u0026h=650\u0026w=940",
				"medium": "https://images.pexels.com/photos/1077785/pexels-photo-1077785.jpeg?auto=compress\u0026cs=tinysrgb\u0026h=350",
				"small": "https://images.pexels.com/photos/1077785/pexels-photo-1077785.jpeg?auto=compress\u0026cs=tinysrgb\u0026h=130",
				"portrait": "https://images.pexels.com/photos/1077785/pexels-photo-1077785.jpeg?auto=compress\u0026cs=tinysrgb\u0026fit=crop\u0026h=1200\u0026w=800",
				"landscape": "https://images.pexels.com/photos/1077785/pexels-photo-1077785.jpeg?auto=compress\u0026cs=tinysrgb\u0026fit=crop\u0026h=627\u0026w=1200",
				"tiny": "https://images.pexels.com/photos/1077785/pexels-photo-1077785.jpeg?auto=compress\u0026cs=tinysrgb\u0026dpr=1\u0026fit=crop\u0026h=200\u0026w=280"
			},
			"liked": false,
			"alt": "Parked Cars"
		}
	],
	"total_results": 8000,
	"next_page": "https://api.pexels.com/v1/search/?page=3\u0026per_page=10\u0026query=cars",
	"prev_page": "https://api.pexels.com/v1/search/?page=1\u0026per_page=10\u0026query=cars"
}